[
  {
    "object"  : "weight",
    "unit"    : "weight",
    "target"  : "-"
  },
  {
    "object"  : "chest",
    "unit"    : "size",
    "target"  : "+"
  },
  {
    "object"  : "biceps",
    "unit"    : "size",
    "target"  : "+"
  },
  {
    "object"  : "waist",
    "unit"    : "size",
    "target"  : "-"
  },
  {
    "object"  : "calves",
    "unit"    : "size",
    "target"  : "+"
  },
  {
    "object"  : "thighs",
    "unit"    : "size",
    "target"  : "+"
  }
]
