[
  {
    "id": "crunch",
    "reps" : "+",
    "muscles": [
      "abs"
    ]
  },
  {
    "id": "plank",
    "time": "+",
    "muscles": [
      "erector_spinae", "abs"
    ]
  },
  {
    "id": "front_crawl",
    "time": "-",
    "distance": "+",
    "muscles": [
      "lat", "pectoral", "deltoid", "triceps", "quadriceps", "hamstrings"
    ]
  },
  {
    "id": "squat",
    "weight": "+",
    "reps" : "+",
    "muscles" : [
      "quadriceps", "glutes"
    ]
  },
  {
    "id" : "dead_lift",
    "weight" : "+",
    "reps" : "+",
    "muscles" : [
      "glutes", "hamstrings", "erector_spinae", "quadriceps"
    ]
  },
  {
    "id" : "bent_over_row",
    "weight" : "+",
    "reps" : "+",
    "muscles" : [
      "lat", "deltoid", "trapezius"
    ]
  },
  {
    "id": "biceps_curl",
    "weight": "+",
    "reps" : "+",
    "muscles": [
      "biceps"
    ]
  },
  {
    "id": "clean_and_press",
    "weight": "+",
    "reps" : "+",
    "muscles": [
      "deltoid", "triceps"
    ]
  },
  {
    "id": "pullover",
    "weight": "+",
    "reps" : "+",
    "muscles": [
      "pectoral", "lat"
    ]
  },
  {
    "id": "dip",
    "weight": "+",
    "reps" : "+",
    "muscles": [
      "deltoid", "triceps", "pectoral"
    ]
  },
  {
    "id": "lat_pulldown",
    "weight": "+",
    "reps" : "+",
    "muscles": [
      "lat", "trapezius", "deltoid"
    ]
  },
  {
    "id": "chest_press",
    "weight": "+",
    "reps" : "+",
    "muscles": [
      "pectoral", "triceps", "deltoid"
    ]
  },
  {
    "id": "bench_press_incline",
    "weight": "+",
    "reps" : "+",
    "muscles": [
      "pectoral", "triceps", "deltoid"
    ]
  },
  {
    "id": "bench_press",
    "weight": "+",
    "reps" : "+",
    "muscles": [
      "pectoral", "triceps", "deltoid"
    ]
  },
  {
    "id": "pull_up",
    "weight": "+",
    "reps" : "+",
    "muscles": [
      "lat", "biceps", "trapezius", "deltoid"
    ]
  },
  {
    "id": "breaststroke",
    "time": "-",
    "distance": "+",
    "muscles": [
      "lat", "pectoral", "deltoid", "biceps", "triceps", "quadriceps", "hamstrings", "glutes"
    ]
  },
  {
    "id": "butterfly",
    "time": "-",
    "distance": "+",
    "muscles": [
      "lat", "hamstrings", "glutes", "abs"
    ]
  },
  {
    "id": "chest_fly",
    "weight": "+",
    "reps" : "+",
    "muscles": [
      "pectoral", "deltoid"
    ]
  },
  {
    "id": "shrug",
    "weight": "+",
    "reps" : "+",
    "muscles": [
      "trapezius"
    ]
  },
  {
    "id": "front_raise",
    "weight": "+",
    "reps" : "+",
    "muscles": [
      "deltoid"
    ]
  },
  {
    "id": "side_bend",
    "weight": "+",
    "reps" : "+",
    "muscles": [
      "obliques", "erector_spinae"
    ]
  },
  {
    "id": "hyperextension",
    "weight": "+",
    "reps" : "+",
    "muscles": [
      "erector_spinae"
    ]
  },
  {
    "id": "triceps_extensions",
    "weight": "+",
    "reps" : "+",
    "muscles": [
      "triceps"
    ]
  },
  {
    "id": "renegade_rows",
    "weight": "+",
    "reps" : "+",
    "muscles": [
      "lat", "trapezius"
    ]
  },
  {
    "id": "push_up",
    "reps" : "+",
    "muscles": [
      "abs", "pectoral", "deltoid", "erector_spinae", "triceps", "biceps", "forearms"
    ]
  },
  {
    "id": "wrist_curl",
    "weight": "+",
    "reps" : "+",
    "muscles": [
      "forearms"
    ]
  },
  {
    "id": "leg_extension",
    "weight": "+",
    "reps" : "+",
    "muscles": [
      "quadriceps"
    ]
  },
  {
    "id": "leg_curl",
    "weight": "+",
    "reps" : "+",
    "muscles": [
      "hamstrings"
    ]
  },
  {
    "id": "running",
    "time": "-",
    "distance": "+",
    "muscles": [
      "calves", "glutes", "quadriceps", "hamstrings"
    ]
  },
  {
    "id": "calf_raise",
    "weight": "+",
    "reps" : "+",
    "muscles": [
      "calves"
    ]
  },
  {
    "id": "french_press",
    "weight": "+",
    "reps" : "+",
    "muscles": [
      "triceps"
    ]
  },
  {
    "id": "glute_bridge",
    "time": "+",
    "muscles": [
      "glutes", "erector_spinae", "abs"
    ]
  },
  {
    "id": "step_up",
    "weight": "+",
    "reps" : "+",
    "muscles": [
      "glutes", "quadriceps", "hamstrings"
    ]
  },
  {
    "id": "hip_thrust",
    "weight": "+",
    "reps" : "+",
    "muscles": [
      "glutes"
    ]
  },
  {
    "id": "lateral_raise",
    "weight": "+",
    "reps" : "+",
    "muscles": [
      "deltoid"
    ]
  }

]
