[
  {
    "object"  : "weight",
    "unit"    : "weight",
    "target"  : "-"
  },
  {
    "object"  : "chest",
    "unit"    : "size",
    "target"  : "+"
  },
  {
    "object"  : "arms",
    "unit"    : "size",
    "target"  : "+"
  }
]
