[
  {
    "part": "arms",
    "muscles" : [
      "biceps",
      "triceps",
      "forearms",
      "deltoid"
    ]
  },
  {
    "part": "legs",
    "muscles": [
      "quadriceps",
      "hamstrings",
      "calves"
    ]
  },
  {
    "part": "back",
    "muscles": [
      "lats",
      "trapezius"
    ]
  },
  {
    "part": "lower_back",
    "muscles": [
      "lower_back"
    ]
  },
  {
    "part": "chest",
    "muscles": [
      "pectorals"
    ]
  },
  {
    "part": "belly",
    "muscles": [
      "abs",
      "obliques"
    ]
  }
]
